<?xml version="1.0" encoding="utf-8"?>
<!-- Generator: Adobe Illustrator 19.2.1, SVG Export Plug-In . SVG Version: 6.00 Build 0)  -->
<svg version="1.1" id="Layer_1" xmlns="http://www.w3.org/2000/svg" xmlns:xlink="http://www.w3.org/1999/xlink" x="0px" y="0px"
	 viewBox="0 0 370 130" style="enable-background:new 0 0 370 130;" xml:space="preserve">
<style type="text/css">
	.st0{fill:#FFFFFF;}
</style>
<path class="st0" d="M60.2,34c0-6.2,5.1-11.2,11.4-11.2c6.3,0,11.3,5,11.3,11.2s-5.1,11.2-11.3,11.2C65.3,45.2,60.2,40.2,60.2,34z
	 M77.3,34c0-3.1-2.5-5.6-5.7-5.6c-3.1,0-5.7,2.5-5.7,5.6s2.5,5.6,5.7,5.6C74.7,39.6,77.3,37.1,77.3,34z M92.2,15.8
	c5.7,5.5,8.9,12.9,8.9,20.9c0,16.1-13.2,29.2-29.5,29.2S42.1,52.8,42.1,36.7c0-8,3.2-15.4,8.9-20.9l4,4c-4.6,4.4-7.2,10.4-7.2,16.8
	c0,11.8,8.8,21.6,20.3,23.3v-9.1h5.7v9.3c12.1-1,21.6-11.1,21.6-23.4c0-6.4-2.5-12.4-7.2-16.8L92.2,15.8z M115.9,122.5l-3.4-4.5l0,0
	c-2.2-2.9-6.2-8.1-8.5-10.1c-2.4-2.1-4.9-3.6-7.6-4.5c-5.6-1.9-14.6-2.6-26,5.4c-13,9-17.8,9-25.7,8.1c-6.5-0.7-13.3-7.7-13.4-7.7
	l-2-2l4.1-3.9l2,2c1.9,1.9,6.8,5.7,9.9,6.1c6.4,0.7,10,1.1,21.8-7.1c5.2-3.6,10-5.7,14.4-6.7L74.7,92l3.6-4.3l7.9,6.5
	c2,1.6,4.4,2.4,7,2.4c6.1,0,11.1-4.9,11.1-11s-5-11-11.1-11c-2.4,0-4.7,0.8-6.7,2.2L60.4,98.3c-3,2.4-6.7,3.7-10.6,3.7
	C40.6,102,33,94.5,33,85.4s7.5-16.6,16.8-16.6c3.7,0,7.2,1.2,10.2,3.4l0.1,0.1l8.1,6.7l-3.7,4.3l-8-6.7c-1.9-1.4-4.2-2.2-6.7-2.2
	c-6.1,0-11.1,4.9-11.1,11s5,11,11.1,11c2.6,0,5-0.8,7-2.4l26.3-21.8h0.1c2.9-2.2,6.5-3.4,10.2-3.4c9.3,0,16.8,7.5,16.8,16.6
	c0,6-3.3,11.3-8.2,14.2c2,1.1,4,2.4,5.9,4c2.5,2.2,6.4,7.2,8.9,10.4c12-11.9,18.6-27.8,18.6-44.8c0-35.1-28.9-63.7-64.3-63.7
	S6.7,34.2,6.7,69.3c0,18.7,8.2,36.2,22.5,48.3c2.3,1.7,8.3,5.7,14,6.4c1.9,0.2,4.2,0.4,6.5,0.4c6.6,0,13.4-1.7,25.6-10.2
	c6.6-4.6,12.8-6.1,17.9-4.3c2,0.7,3.7,1.8,5.2,3.4l-4.1,3.9c-0.9-0.9-1.8-1.5-2.9-1.9c-3.3-1.2-7.8,0.1-12.8,3.6
	C67,126.8,58.7,130,49.6,130c-2.5,0-5-0.2-7.1-0.5c-6.4-0.7-12.7-4.5-16-6.8l-0.1,0.1c-0.3-0.3-0.6-0.5-0.9-0.8
	c-0.1-0.1-0.2-0.1-0.3-0.2l0,0C9.9,108.5,1,89.5,1,69.3c0-18.5,7.3-35.9,20.5-49S52.3,0,71,0s36.3,7.2,49.5,20.3s20.5,30.5,20.5,49
	C141,89.9,131.8,109.2,115.9,122.5z"/>
<path class="st0" d="M361.8,93.5l-2.5-9.3h-13.6l-2.4,9.3h-7l16.3-57.7l16.3,57.7H361.8z M353.9,63.5l-1.4-6.7l-1.4,6.7L347.3,78
	h10.4L353.9,63.5z M307.9,59.4l0.2,6.1v28h-6.5V35.3l17.6,29.4l3.9,6.8l-0.2-6.7V37.5h6.5v57.2l-17.6-29.2L307.9,59.4z M285.1,84.2
	h-13.6l-2.4,9.3h-7l16.3-57.7l16.3,57.7h-7L285.1,84.2z M279.7,63.5l-1.4-6.7l-1.4,6.7L273.1,78h10.4L279.7,63.5z M254.4,90.5
	c-1.2,1.2-2.7,2.1-4.3,2.7c-1.7,0.6-3.5,0.9-5.5,0.9c-2.1,0-4-0.3-5.9-0.9s-3.5-1.4-4.9-2.3l3-5.8c1.1,0.7,2.3,1.3,3.6,1.8
	s2.6,0.8,4.1,0.8c0.9,0,1.8-0.1,2.6-0.4s1.6-0.7,2.2-1.2c0.6-0.5,1.1-1.2,1.5-2.1c0.4-0.8,0.6-1.8,0.6-3c0-0.8-0.1-1.6-0.3-2.4
	s-0.5-1.7-1-2.7c-0.5-0.9-1.1-2-1.8-3.1c-0.4-0.7-0.9-1.4-1.5-2.1l5-4.6l0.2,0.3c0.8,1.1,1.6,2.2,2.4,3.3c0.7,1.1,1.4,2.2,1.9,3.3
	c0.5,1.1,1,2.3,1.3,3.5s0.5,2.6,0.5,4c0,2.1-0.3,4-1,5.7C256.6,87.9,255.6,89.4,254.4,90.5z M251.2,43.6c-0.9-0.4-2-0.5-3.1-0.5
	c-1.9,0-3.5,0.5-4.6,1.6s-1.7,2.6-1.7,4.6c0,0.5,0.1,1.1,0.2,1.7c0.1,0.6,0.3,1.2,0.6,1.9s0.7,1.4,1.2,2.3c0.5,0.8,1.1,1.7,1.9,2.8
	l0.8,1l-5.2,4.7l-0.1-0.1c-1.1-1.4-2.1-2.8-2.9-4.1c-0.8-1.3-1.4-2.5-1.9-3.7s-0.8-2.3-1.1-3.4c-0.2-1.1-0.3-2.2-0.3-3.2
	c0-1.8,0.3-3.4,0.8-4.9c0.6-1.5,1.4-2.8,2.5-3.9c1.1-1.1,2.4-1.9,3.9-2.5s3.3-0.9,5.2-0.9c1.5,0,3.1,0.2,4.7,0.6
	c1.6,0.4,3.1,1.1,4.6,2l-2.8,5.4C253,44.4,252.1,43.9,251.2,43.6z M220.5,84.2h-13.6l-2.4,9.3h-7l16.3-57.7L230,93.5h-7L220.5,84.2z
	 M215.1,63.5l-1.4-6.7l-1.4,6.7L208.5,78h10.4L215.1,63.5z M186,84.2h-13.6l-2.4,9.3h-7l16.3-57.7l16.3,57.7h-7L186,84.2z
	 M180.6,63.5l-1.4-6.7l-1.4,6.7L174,78h10.4L180.6,63.5z"/>
</svg>
